\relax 
\providecommand\hyper@newdestlabel[2]{}
\providecommand\HyperFirstAtBeginDocument{\AtBeginDocument}
\HyperFirstAtBeginDocument{\ifx\hyper@anchor\@undefined
\global\let\oldcontentsline\contentsline
\gdef\contentsline#1#2#3#4{\oldcontentsline{#1}{#2}{#3}}
\global\let\oldnewlabel\newlabel
\gdef\newlabel#1#2{\newlabelxx{#1}#2}
\gdef\newlabelxx#1#2#3#4#5#6{\oldnewlabel{#1}{{#2}{#3}}}
\AtEndDocument{\ifx\hyper@anchor\@undefined
\let\contentsline\oldcontentsline
\let\newlabel\oldnewlabel
\fi}
\fi}
\global\let\hyper@last\relax 
\gdef\HyperFirstAtBeginDocument#1{#1}
\providecommand\HyField@AuxAddToFields[1]{}
\providecommand\HyField@AuxAddToCoFields[2]{}
\select@language{english}
\@writefile{toc}{\select@language{english}}
\@writefile{lof}{\select@language{english}}
\@writefile{lot}{\select@language{english}}
\@writefile{toc}{\contentsline {section}{\numberline {1}Introduction}{1}{section.1}}
\@writefile{lof}{\contentsline {figure}{\numberline {1.1}{\ignorespaces General setup of the Lid Driven Cavity Problem\relax }}{1}{figure.caption.1}}
\@writefile{toc}{\contentsline {subsection}{\numberline {1.1}Governing Equations}{1}{subsection.1.1}}
\newlabel{eq:ns1}{{1.1}{2}{Governing Equations}{equation.1.1}{}}
\newlabel{eq:ns2}{{1.2}{2}{Governing Equations}{equation.1.2}{}}
\newlabel{eq:ns_cont}{{1.3}{2}{Governing Equations}{equation.1.3}{}}
\@writefile{toc}{\contentsline {subsection}{\numberline {1.2}Boundary Conditions}{2}{subsection.1.2}}
\newlabel{sec:gov_eqn}{{1.2}{2}{Boundary Conditions}{equation.1.6}{}}
\@writefile{toc}{\contentsline {section}{\numberline {2}Solution Methodology}{2}{section.2}}
\@writefile{toc}{\contentsline {subsection}{\numberline {2.1}Grid generation}{2}{subsection.2.1}}
\providecommand*\caption@xref[2]{\@setref\relax\@undefined{#1}}
\newlabel{staggered}{{\caption@xref {staggered}{ on input line 109}}{3}{Grid generation}{figure.caption.2}{}}
\@writefile{lof}{\contentsline {figure}{\numberline {2.1}{\ignorespaces Staggered Grid Arrangement of primitive variables\relax }}{3}{figure.caption.2}}
\@writefile{toc}{\contentsline {subsection}{\numberline {2.2}Spatial Discretization}{3}{subsection.2.2}}
\@writefile{toc}{\contentsline {subsubsection}{\numberline {2.2.1}Convective Terms}{3}{subsubsection.2.2.1}}
\@writefile{toc}{\contentsline {subsubsection}{\numberline {2.2.2}Diffusive Terms}{3}{subsubsection.2.2.2}}
\citation{Ghia1982387}
\@writefile{toc}{\contentsline {subsubsection}{\numberline {2.2.3}Pressure}{4}{subsubsection.2.2.3}}
\@writefile{toc}{\contentsline {subsection}{\numberline {2.3}Temporal Discretization}{4}{subsection.2.3}}
\@writefile{toc}{\contentsline {section}{\numberline {3}Results and Validation}{4}{section.3}}
\@writefile{toc}{\contentsline {subsection}{\numberline {3.1}$Re = 100$}{4}{subsection.3.1}}
\newlabel{fig:sfig1}{{3.1a}{4}{$u$ Velocity contour\relax }{figure.caption.3}{}}
\newlabel{sub@fig:sfig1}{{a}{4}{$u$ Velocity contour\relax }{figure.caption.3}{}}
\newlabel{fig:sfig1}{{3.1b}{4}{$v$ velocity contour\relax }{figure.caption.3}{}}
\newlabel{sub@fig:sfig1}{{b}{4}{$v$ velocity contour\relax }{figure.caption.3}{}}
\@writefile{lof}{\contentsline {figure}{\numberline {3.1}{\ignorespaces Velocity contours\relax }}{4}{figure.caption.3}}
\newlabel{fig:sfig1}{{3.2a}{5}{Non-dimensionalized vertical centerline $u$ velocity\relax }{figure.caption.4}{}}
\newlabel{sub@fig:sfig1}{{a}{5}{Non-dimensionalized vertical centerline $u$ velocity\relax }{figure.caption.4}{}}
\newlabel{fig:sfig2}{{3.2b}{5}{Non-dimensionalized horizontal centerline $v$ velocity\relax }{figure.caption.4}{}}
\newlabel{sub@fig:sfig2}{{b}{5}{Non-dimensionalized horizontal centerline $v$ velocity\relax }{figure.caption.4}{}}
\@writefile{lof}{\contentsline {figure}{\numberline {3.2}{\ignorespaces Validation with \textit  {Ghia et al.}; $N=40$\relax }}{5}{figure.caption.4}}
\newlabel{fig:sfig1}{{3.3a}{6}{Streamlines\relax }{figure.caption.5}{}}
\newlabel{sub@fig:sfig1}{{a}{6}{Streamlines\relax }{figure.caption.5}{}}
\newlabel{fig:sfig1}{{3.3b}{6}{Pressure contour\relax }{figure.caption.5}{}}
\newlabel{sub@fig:sfig1}{{b}{6}{Pressure contour\relax }{figure.caption.5}{}}
\@writefile{lof}{\contentsline {figure}{\numberline {3.3}{\ignorespaces Streamline plot and Pressure contour for $Re = 100$\relax }}{6}{figure.caption.5}}
\newlabel{fig:fig}{{3.3}{6}{Streamline plot and Pressure contour for $Re = 100$\relax }{figure.caption.5}{}}
\@writefile{toc}{\contentsline {subsection}{\numberline {3.2}$Re = 400$}{6}{subsection.3.2}}
\newlabel{fig:sfig1}{{3.4a}{6}{$u$ Velocity contour\relax }{figure.caption.6}{}}
\newlabel{sub@fig:sfig1}{{a}{6}{$u$ Velocity contour\relax }{figure.caption.6}{}}
\newlabel{fig:sfig1}{{3.4b}{6}{$v$ velocity contour\relax }{figure.caption.6}{}}
\newlabel{sub@fig:sfig1}{{b}{6}{$v$ velocity contour\relax }{figure.caption.6}{}}
\@writefile{lof}{\contentsline {figure}{\numberline {3.4}{\ignorespaces Velocity contours\relax }}{6}{figure.caption.6}}
\newlabel{fig:sfig1}{{3.5a}{6}{Streamlines\relax }{figure.caption.7}{}}
\newlabel{sub@fig:sfig1}{{a}{6}{Streamlines\relax }{figure.caption.7}{}}
\newlabel{fig:sfig1}{{3.5b}{6}{Pressure contour\relax }{figure.caption.7}{}}
\newlabel{sub@fig:sfig1}{{b}{6}{Pressure contour\relax }{figure.caption.7}{}}
\@writefile{lof}{\contentsline {figure}{\numberline {3.5}{\ignorespaces Streamline plot and Pressure contour for $Re = 400$\relax }}{6}{figure.caption.7}}
\newlabel{fig:fig}{{3.5}{6}{Streamline plot and Pressure contour for $Re = 400$\relax }{figure.caption.7}{}}
\newlabel{fig:sfig1}{{3.6a}{7}{Non-dimensionalized vertical centerline $u$ velocity\relax }{figure.caption.8}{}}
\newlabel{sub@fig:sfig1}{{a}{7}{Non-dimensionalized vertical centerline $u$ velocity\relax }{figure.caption.8}{}}
\newlabel{fig:sfig2}{{3.6b}{7}{Non-dimensionalized horizontal centerline $v$ velocity\relax }{figure.caption.8}{}}
\newlabel{sub@fig:sfig2}{{b}{7}{Non-dimensionalized horizontal centerline $v$ velocity\relax }{figure.caption.8}{}}
\@writefile{lof}{\contentsline {figure}{\numberline {3.6}{\ignorespaces Validation with \textit  {Ghia et al.}; $N=40$\relax }}{7}{figure.caption.8}}
\@writefile{toc}{\contentsline {subsection}{\numberline {3.3}$Re = 1000$}{8}{subsection.3.3}}
\newlabel{fig:sfig1}{{3.7a}{8}{Non-dimensionalized vertical centerline $u$ velocity\relax }{figure.caption.9}{}}
\newlabel{sub@fig:sfig1}{{a}{8}{Non-dimensionalized vertical centerline $u$ velocity\relax }{figure.caption.9}{}}
\newlabel{fig:sfig2}{{3.7b}{8}{Non-dimensionalized horizontal centerline $v$ velocity\relax }{figure.caption.9}{}}
\newlabel{sub@fig:sfig2}{{b}{8}{Non-dimensionalized horizontal centerline $v$ velocity\relax }{figure.caption.9}{}}
\@writefile{lof}{\contentsline {figure}{\numberline {3.7}{\ignorespaces Validation with \textit  {Ghia et al.}; $N=128$\relax }}{8}{figure.caption.9}}
\newlabel{fig:sfig1}{{3.8a}{9}{$u$ Velocity contour\relax }{figure.caption.10}{}}
\newlabel{sub@fig:sfig1}{{a}{9}{$u$ Velocity contour\relax }{figure.caption.10}{}}
\newlabel{fig:sfig1}{{3.8b}{9}{$v$ velocity contour\relax }{figure.caption.10}{}}
\newlabel{sub@fig:sfig1}{{b}{9}{$v$ velocity contour\relax }{figure.caption.10}{}}
\@writefile{lof}{\contentsline {figure}{\numberline {3.8}{\ignorespaces Velocity contours\relax }}{9}{figure.caption.10}}
\newlabel{fig:sfig1}{{3.9a}{9}{Streamlines\relax }{figure.caption.11}{}}
\newlabel{sub@fig:sfig1}{{a}{9}{Streamlines\relax }{figure.caption.11}{}}
\newlabel{fig:sfig1}{{3.9b}{9}{Pressure contour\relax }{figure.caption.11}{}}
\newlabel{sub@fig:sfig1}{{b}{9}{Pressure contour\relax }{figure.caption.11}{}}
\@writefile{lof}{\contentsline {figure}{\numberline {3.9}{\ignorespaces Streamline plot and Pressure contour for $Re = 1000$\relax }}{9}{figure.caption.11}}
\newlabel{fig:fig}{{3.9}{9}{Streamline plot and Pressure contour for $Re = 1000$\relax }{figure.caption.11}{}}
\@writefile{toc}{\contentsline {subsection}{\numberline {3.4}Varying grid sizes for $Re=1000$}{10}{subsection.3.4}}
\newlabel{fig:sfig1}{{3.10a}{10}{Vertical centerline $u$ velocity\relax }{figure.caption.12}{}}
\newlabel{sub@fig:sfig1}{{a}{10}{Vertical centerline $u$ velocity\relax }{figure.caption.12}{}}
\newlabel{fig:sfig2}{{3.10b}{10}{Horizontal centerline $v$ velocity\relax }{figure.caption.12}{}}
\newlabel{sub@fig:sfig2}{{b}{10}{Horizontal centerline $v$ velocity\relax }{figure.caption.12}{}}
\@writefile{lof}{\contentsline {figure}{\numberline {3.10}{\ignorespaces Comparison of results for $Re=1000$ simulated with $N=32,\ 64\ 128$\relax }}{10}{figure.caption.12}}
\@writefile{toc}{\contentsline {section}{\numberline {4}[BONUS] - Computing stream function $\psi $}{11}{section.4}}
\newlabel{fig:sfig1}{{4.1a}{11}{$Re=100$; $N=40$\relax }{figure.caption.13}{}}
\newlabel{sub@fig:sfig1}{{a}{11}{$Re=100$; $N=40$\relax }{figure.caption.13}{}}
\newlabel{fig:sfig1}{{4.1b}{11}{$Re=400$; $N=40$\relax }{figure.caption.13}{}}
\newlabel{sub@fig:sfig1}{{b}{11}{$Re=400$; $N=40$\relax }{figure.caption.13}{}}
\newlabel{fig:sfig1}{{4.1c}{11}{$Re=1000$; $N=64$\relax }{figure.caption.13}{}}
\newlabel{sub@fig:sfig1}{{c}{11}{$Re=1000$; $N=64$\relax }{figure.caption.13}{}}
\newlabel{fig:sfig1}{{4.1d}{11}{$Re=1000$; $N=128$\relax }{figure.caption.13}{}}
\newlabel{sub@fig:sfig1}{{d}{11}{$Re=1000$; $N=128$\relax }{figure.caption.13}{}}
\@writefile{lof}{\contentsline {figure}{\numberline {4.1}{\ignorespaces Flooded Isocontours of $\psi $\relax }}{11}{figure.caption.13}}
\newlabel{fig:fig}{{4.1}{11}{Flooded Isocontours of $\psi $\relax }{figure.caption.13}{}}
\bibstyle{plain}
\bibdata{references}
\bibcite{Ghia1982387}{1}
\@writefile{toc}{\contentsline {section}{\numberline {5}Discussion}{12}{section.5}}
