\relax 
\providecommand\hyper@newdestlabel[2]{}
\providecommand\HyperFirstAtBeginDocument{\AtBeginDocument}
\HyperFirstAtBeginDocument{\ifx\hyper@anchor\@undefined
\global\let\oldcontentsline\contentsline
\gdef\contentsline#1#2#3#4{\oldcontentsline{#1}{#2}{#3}}
\global\let\oldnewlabel\newlabel
\gdef\newlabel#1#2{\newlabelxx{#1}#2}
\gdef\newlabelxx#1#2#3#4#5#6{\oldnewlabel{#1}{{#2}{#3}}}
\AtEndDocument{\ifx\hyper@anchor\@undefined
\let\contentsline\oldcontentsline
\let\newlabel\oldnewlabel
\fi}
\fi}
\global\let\hyper@last\relax 
\gdef\HyperFirstAtBeginDocument#1{#1}
\providecommand\HyField@AuxAddToFields[1]{}
\providecommand\HyField@AuxAddToCoFields[2]{}
\providecommand*\caption@xref[2]{\@setref\relax\@undefined{#1}}
\newlabel{fig:sfig1}{{1a}{2}{\texttt {float16}\relax }{figure.caption.3}{}}
\newlabel{sub@fig:sfig1}{{a}{2}{\texttt {float16}\relax }{figure.caption.3}{}}
\newlabel{fig:sfig2}{{1b}{2}{\texttt {float32}\relax }{figure.caption.3}{}}
\newlabel{sub@fig:sfig2}{{b}{2}{\texttt {float32}\relax }{figure.caption.3}{}}
\newlabel{fig:sfig1}{{1c}{2}{\texttt {float64}\relax }{figure.caption.3}{}}
\newlabel{sub@fig:sfig1}{{c}{2}{\texttt {float64}\relax }{figure.caption.3}{}}
\@writefile{lof}{\contentsline {figure}{\numberline {1}{\ignorespaces $\epsilon (=|\pi - \mathaccentV {hat}05E{\pi }|)$ vs $n$ \relax }}{2}{figure.caption.3}}
\newlabel{fig:fig}{{1}{2}{$\epsilon (=|\pi - \hat {\pi }|)$ vs $n$ \relax }{figure.caption.3}{}}
\newlabel{(1)}{{1}{3}{Problem 2}{equation.0.1}{}}
\newlabel{(2)}{{2}{3}{Problem 2}{equation.0.2}{}}
\newlabel{(3)}{{3}{3}{Problem 2}{equation.0.3}{}}
\newlabel{(4)}{{4}{3}{Problem 2}{equation.0.4}{}}
\newlabel{fig:sfig1}{{2a}{5}{A matrix with Explicit Euler\relax }{figure.caption.6}{}}
\newlabel{sub@fig:sfig1}{{a}{5}{A matrix with Explicit Euler\relax }{figure.caption.6}{}}
\newlabel{fig:sfig2}{{2b}{5}{B matrix with Explicit Euler\relax }{figure.caption.6}{}}
\newlabel{sub@fig:sfig2}{{b}{5}{B matrix with Explicit Euler\relax }{figure.caption.6}{}}
\newlabel{fig:sfig1}{{2c}{5}{A matrix with Implicit Euler\relax }{figure.caption.6}{}}
\newlabel{sub@fig:sfig1}{{c}{5}{A matrix with Implicit Euler\relax }{figure.caption.6}{}}
\newlabel{fig:sfig1}{{2d}{5}{B matrix with Implicit Euler\relax }{figure.caption.6}{}}
\newlabel{sub@fig:sfig1}{{d}{5}{B matrix with Implicit Euler\relax }{figure.caption.6}{}}
\newlabel{fig:sfig2}{{2e}{5}{A matrix with Crank Nicholson\relax }{figure.caption.6}{}}
\newlabel{sub@fig:sfig2}{{e}{5}{A matrix with Crank Nicholson\relax }{figure.caption.6}{}}
\newlabel{fig:sfig1}{{2f}{5}{B matrix with Crank Nicholson\relax }{figure.caption.6}{}}
\newlabel{sub@fig:sfig1}{{f}{5}{B matrix with Crank Nicholson\relax }{figure.caption.6}{}}
\@writefile{lof}{\contentsline {figure}{\numberline {2}{\ignorespaces \texttt  {spy} plot of $A$ and $B$ matrices for $N=10$\relax }}{5}{figure.caption.6}}
\newlabel{fig:fig}{{2}{5}{\texttt {spy} plot of $A$ and $B$ matrices for $N=10$\relax }{figure.caption.6}{}}
\newlabel{fig:sfig1}{{3a}{6}{Explicit Euler\relax }{figure.caption.7}{}}
\newlabel{sub@fig:sfig1}{{a}{6}{Explicit Euler\relax }{figure.caption.7}{}}
\newlabel{fig:sfig2}{{3b}{6}{Implicit Euler\relax }{figure.caption.7}{}}
\newlabel{sub@fig:sfig2}{{b}{6}{Implicit Euler\relax }{figure.caption.7}{}}
\newlabel{fig:sfig1}{{3c}{6}{Crank Nicholson\relax }{figure.caption.7}{}}
\newlabel{sub@fig:sfig1}{{c}{6}{Crank Nicholson\relax }{figure.caption.7}{}}
\@writefile{lof}{\contentsline {figure}{\numberline {3}{\ignorespaces Isocontour plots of unitary spectral radius for different time advancement schemes in the $C_c$ vs $C_{\alpha }$plane\relax }}{6}{figure.caption.7}}
\newlabel{fig:fig}{{3}{6}{Isocontour plots of unitary spectral radius for different time advancement schemes in the $C_c$ vs $C_{\alpha }$plane\relax }{figure.caption.7}{}}
\newlabel{fig:sfig1}{{4a}{7}{Implicit Euler Scheme ; $N=20$\relax }{figure.caption.8}{}}
\newlabel{sub@fig:sfig1}{{a}{7}{Implicit Euler Scheme ; $N=20$\relax }{figure.caption.8}{}}
\newlabel{fig:sfig2}{{4b}{7}{Implicit Euler Scheme ; $N=80$\relax }{figure.caption.8}{}}
\newlabel{sub@fig:sfig2}{{b}{7}{Implicit Euler Scheme ; $N=80$\relax }{figure.caption.8}{}}
\newlabel{fig:sfig1}{{4c}{7}{Implicit Euler Scheme ; $N=200$\relax }{figure.caption.8}{}}
\newlabel{sub@fig:sfig1}{{c}{7}{Implicit Euler Scheme ; $N=200$\relax }{figure.caption.8}{}}
\newlabel{fig:sfig1}{{4d}{7}{(g) Crank Nicholson Scheme; $N=20$\relax }{figure.caption.8}{}}
\newlabel{sub@fig:sfig1}{{d}{7}{(g) Crank Nicholson Scheme; $N=20$\relax }{figure.caption.8}{}}
\newlabel{fig:sfig2}{{4e}{7}{(h) Crank Nicholson Scheme; $N=80$\relax }{figure.caption.8}{}}
\newlabel{sub@fig:sfig2}{{e}{7}{(h) Crank Nicholson Scheme; $N=80$\relax }{figure.caption.8}{}}
\newlabel{fig:sfig1}{{4f}{7}{(i) Crank Nicholson Scheme; $N=200$\relax }{figure.caption.8}{}}
\newlabel{sub@fig:sfig1}{{f}{7}{(i) Crank Nicholson Scheme; $N=200$\relax }{figure.caption.8}{}}
\@writefile{lof}{\contentsline {figure}{\numberline {4}{\ignorespaces Comparison of analytical and numerical solution for different time advancement schemes and varying grid densities\relax }}{7}{figure.caption.8}}
\newlabel{fig:fig}{{4}{7}{Comparison of analytical and numerical solution for different time advancement schemes and varying grid densities\relax }{figure.caption.8}{}}
\newlabel{fig:sfig1}{{5a}{8}{$2^{nd}$ order central\relax }{figure.caption.9}{}}
\newlabel{sub@fig:sfig1}{{a}{8}{$2^{nd}$ order central\relax }{figure.caption.9}{}}
\newlabel{fig:sfig2}{{5b}{8}{$4^{th}$ order central\relax }{figure.caption.9}{}}
\newlabel{sub@fig:sfig2}{{b}{8}{$4^{th}$ order central\relax }{figure.caption.9}{}}
\newlabel{fig:sfig1}{{5c}{8}{$2^{nd}$ order upwind\relax }{figure.caption.9}{}}
\newlabel{sub@fig:sfig1}{{c}{8}{$2^{nd}$ order upwind\relax }{figure.caption.9}{}}
\newlabel{fig:sfig1}{{5d}{8}{$4^{th}$ order upwind\relax }{figure.caption.9}{}}
\newlabel{sub@fig:sfig1}{{d}{8}{$4^{th}$ order upwind\relax }{figure.caption.9}{}}
\@writefile{lof}{\contentsline {figure}{\numberline {5}{\ignorespaces $RMSE$ vs $\Delta t$ plotted for different spatial discretization schemes using Crank Nicholson time advancement\relax }}{8}{figure.caption.9}}
\newlabel{fig:fig}{{5}{8}{$RMSE$ vs $\Delta t$ plotted for different spatial discretization schemes using Crank Nicholson time advancement\relax }{figure.caption.9}{}}
\newlabel{fig:sfig1}{{6a}{9}{$2^{nd}$ order central\relax }{figure.caption.10}{}}
\newlabel{sub@fig:sfig1}{{a}{9}{$2^{nd}$ order central\relax }{figure.caption.10}{}}
\newlabel{fig:sfig2}{{6b}{9}{$4^{th}$ order central\relax }{figure.caption.10}{}}
\newlabel{sub@fig:sfig2}{{b}{9}{$4^{th}$ order central\relax }{figure.caption.10}{}}
\newlabel{fig:sfig1}{{6c}{9}{$2^{nd}$ order upwind\relax }{figure.caption.10}{}}
\newlabel{sub@fig:sfig1}{{c}{9}{$2^{nd}$ order upwind\relax }{figure.caption.10}{}}
\newlabel{fig:sfig1}{{6d}{9}{$4^{th}$ order upwind\relax }{figure.caption.10}{}}
\newlabel{sub@fig:sfig1}{{d}{9}{$4^{th}$ order upwind\relax }{figure.caption.10}{}}
\@writefile{lof}{\contentsline {figure}{\numberline {6}{\ignorespaces $RMSE$ vs $\Delta x$ plotted for different spatial discretization schemes using Crank Nicholson time advancement\relax }}{9}{figure.caption.10}}
\newlabel{fig:fig}{{6}{9}{$RMSE$ vs $\Delta x$ plotted for different spatial discretization schemes using Crank Nicholson time advancement\relax }{figure.caption.10}{}}
\newlabel{(5)}{{5}{10}{Problem 3}{equation.0.5}{}}
\newlabel{fig:sfig1}{{7a}{11}{$2^{nd}$ order central\relax }{figure.caption.13}{}}
\newlabel{sub@fig:sfig1}{{a}{11}{$2^{nd}$ order central\relax }{figure.caption.13}{}}
\newlabel{fig:sfig2}{{7b}{11}{$4^{th}$ order central\relax }{figure.caption.13}{}}
\newlabel{sub@fig:sfig2}{{b}{11}{$4^{th}$ order central\relax }{figure.caption.13}{}}
\newlabel{fig:sfig1}{{7c}{11}{$6^{th}$ order central\relax }{figure.caption.13}{}}
\newlabel{sub@fig:sfig1}{{c}{11}{$6^{th}$ order central\relax }{figure.caption.13}{}}
\@writefile{lof}{\contentsline {figure}{\numberline {7}{\ignorespaces $C_c$ vs $\sigma $ Root plots for different spatial discretizations and RK Schemes\relax }}{11}{figure.caption.13}}
\newlabel{fig:fig}{{7}{11}{$C_c$ vs $\sigma $ Root plots for different spatial discretizations and RK Schemes\relax }{figure.caption.13}{}}
\newlabel{(6)}{{6}{12}{Problem 4}{equation.0.6}{}}
\newlabel{(7)}{{7}{12}{Problem 4}{equation.0.7}{}}
\newlabel{(8)}{{8}{12}{Problem 4}{equation.0.8}{}}
\newlabel{fig:sfig1}{{8a}{13}{Varying $c_{advection}$\relax }{figure.caption.16}{}}
\newlabel{sub@fig:sfig1}{{a}{13}{Varying $c_{advection}$\relax }{figure.caption.16}{}}
\newlabel{fig:sfig2}{{8b}{13}{Varying $\alpha $\relax }{figure.caption.16}{}}
\newlabel{sub@fig:sfig2}{{b}{13}{Varying $\alpha $\relax }{figure.caption.16}{}}
\newlabel{fig:sfig1}{{8c}{13}{Varying $\beta $\relax }{figure.caption.16}{}}
\newlabel{sub@fig:sfig1}{{c}{13}{Varying $\beta $\relax }{figure.caption.16}{}}
\@writefile{lof}{\contentsline {figure}{\numberline {8}{\ignorespaces Variation of Boundary Layer Thickness at steady state obtained by varying one parameter at a time\relax }}{13}{figure.caption.16}}
\newlabel{fig:fig}{{8}{13}{Variation of Boundary Layer Thickness at steady state obtained by varying one parameter at a time\relax }{figure.caption.16}{}}
\@writefile{lof}{\contentsline {figure}{\numberline {9}{\ignorespaces Evolution of solution from initial condition to steady state with $2^{nd}$ order spatial discretization and Crank Nicholson time advancement\relax }}{14}{figure.caption.18}}
\@writefile{lof}{\contentsline {figure}{\numberline {10}{\ignorespaces Verification of the scaling law derived from the $\Pi $ theorem by plotting $\delta $ vs $\alpha $\relax }}{17}{figure.caption.21}}
